{
  "project_info": {
    "project_number": "742890837021",
    "firebase_url": "https://schoolsmart-3354c.firebaseio.com",
    "project_id": "schoolsmart-3354c",
    "storage_bucket": "schoolsmart-3354c.appspot.com"
  },
  "client": [
    {
      "client_info": {
        "mobilesdk_app_id": "1:742890837021:android:74f8087d5ba0174d",
        "android_client_info": {
          "package_name": "com.pseudocoders.pseudocoders"
        }
      },
      "oauth_client": [
        {
          "client_id": "742890837021-f5rg3dec0nvk8i2d0ctib3jt3tatlg1u.apps.googleusercontent.com",
          "client_type": 3
        }
      ],
      "api_key": [
        {
          "current_key": "AIzaSyCyDArvZnCqHtdMaeVS7OnKwbTGsh2B9P4"
        }
      ],
      "services": {
        "analytics_service": {
          "status": 1
        },
        "appinvite_service": {
          "status": 1,
          "other_platform_oauth_client": []
        },
        "ads_service": {
          "status": 2
        }
      }
    }
  ],
  "configuration_version": "1"
}
